{
  "PageConfigId": "UserInformationShopV4",

  "SavedValues": {
    // Password
    "oldPassword": "ctl00_C1_txtOldPassword",
    "newPassword": "ctl00_C1_txtNewPassword",
    "confirmPassword": "ctl00_C1_txtConfirmPassword",

    "savePassword": "ctl00_C1_btnSave"
  }
}