{
  "PageConfigId": "shopV5Main",

  "SavedValues": {
    "welcomeUser": "//div[@ng-if='user.name']",
    "welcomeUserBy": "xpath",

    "welcomeAccount": "//div[@ng-if='account.name && !shadowUser.AccountName && approver== null']",
    "welcomeAccountBy": "xpath",

    // Search
    "quickSearchBox": "searchData.searchTerm",
    "quickSearchBoxBy": "model",

    "quickSearchButton": "//button[@class='btn btn-default btn-search']",
    "quickSearchButtonBy": "xpath",

    "productListResult": "//div[@class='productList-block']",
    "productListResultBy": "xpath",

    // Search results pagination
    "previousPageButton": "body > div.ng-scope > div.main-panel.ng-scope > div > div > div > div.col-md-9.col-sm-12 > div > div.productList.condensed > div.row > div.clearfix > div > div > div > ul > li.disabled",
    "previousPageButtonBy": "css",
    "actualPageNumberBox": "page.currPage",
    "actualPageNumberBoxBy": "model",
    "totalPagesCount": "",
    "nextPageButton": "body > div.ng-scope > div.main-panel.ng-scope > div > div > div > div.col-md-9.col-sm-12 > div > div.productList.condensed > div.row > div.clearfix > div > div > div > ul > li:nth-child(2) > a",
    "nextPageButtonBy": "css",

    // Order Forms
    "loadToBasket":"//*[@id='orderDetailForm']/div[3]/div[1]/button/span[1]",
    "loadToBasketBy":"xpath",

    // Navigation
    "browseBy": "//*[@id='navbar']/ul/li[2]/div/button",
    "browseByBy": "xpath",
      "newProducts": "//*[@id='navbar']/ul/li[2]/div/ul/li[1]/a",
      "newProductsBy": "xpath",
      "specialsAndPromotions": "//*[@id='navbar']/ul/li[2]/div/ul/li[2]/a",
      "specialsAndPromotionsBy": "xpath",
    "orders": "//*[@id='navbar']/ul/li[3]/div/button",
    "ordersBy": "xpath",
      "myOrderForms": "//*[@id='navbar']/ul/li[3]/div/ul/li[2]/ul/li[1]/a/span",
      "myOrderFormsBy": "xpath",
    "quickOrder": "//*[@class='search-wrapper clearfix ng-scope searchWrapperOnBannerCutOff']/div/div",
    "quickOrderBy": "xpath",

    // User Button
    "userButton": "//span[@class='nav-Icon icon-user']",
    "userButtonBy": "xpath",
      // Logout
      "logoutButton": "//a[text()='Logout']",
      "logoutButtonBy": "xpath",
      // User Preferences
      "userPreferences": "//a[text()='User Preferences']",
      "userPreferencesBy": "xpath"
  }
}