{
  "PageConfigId": "shopV5Login",

  "SavedValues": {
    "usernameInput": "user.username",
    "usernameInputBy": "model",
    "passwordInput": "user.password",
    "passwordInputBy": "model",
    "submitButton": "submitButtonText",
    "submitButtonBy": "binding",

    "invalidLoginMessage": "[ng-show=invalidLogin]",
    "invalidLoginMessageBy": "css",

    "rememberMe": "//input[@type='checkbox']",
    "rememberMeBy": "xpath",

    "forgottenPassword": "//a[text()='Forgotten Password?']",
    "forgottenPasswordBy": "xpath",

    "registerHere": "//a[text()='Register Here']",
    "registerHereBy": "xpath",

    "applyForCredit": "//a[text()='Apply For Credit']",
    "applyForCreditBy": "xpath"
  }
}